{
  "EDITOR_STATE": {
    "allProjectFiles": {
      "2f9ef9a9-081b-4342-aa44-4c002f380f22": {
        "id": "2f9ef9a9-081b-4342-aa44-4c002f380f22",
        "parent": null,
        "name": "formio-process-gql.py",
        "type": "PYTHON_LAMBDA",
        "isDirectory": false,
        "children": [],
        "isRemovable": true,
        "filePath": "formio-process-gql.py",
        "cursor": {
          "lineNumber": 4,
          "column": 1
        },
        "config": {
          "runtime": "python3.8",
          "handler": "handler",
          "timeout": 60,
          "memory": 128,
          "layers": [],
          "name": "formioProcessGql"
        },
        "triggers": [],
        "lastUpdated": 1604543348918
      }
    },
    "openFiles": [
      "2f9ef9a9-081b-4342-aa44-4c002f380f22"
    ],
    "currentFileId": "2f9ef9a9-081b-4342-aa44-4c002f380f22",
    "resources": {},
    "customTemplate": {
      "syntax": "JSON",
      "overrideDefault": false,
      "dialect": null,
      "definitions": null
    },
    "envVariables": [
      {
        "lambdaId": "all",
        "varKey": "SIGMA_AWS_ACC_ID",
        "varValue": null,
        "shouldPersist": false,
        "displayOnly": false,
        "editable": false
      }
    ],
    "packageJSON": {
      "dependencies": {}
    }
  },
  "PROJECT_META": {
    "sigmaVersion": "1.4.4.1",
    "projectName": "formio-process-gql",
    "projectDescription": "formio/postman -> api -> process -> gql  ",
    "projectVersion": "1.0.0",
    "projectRegion": "us-east-1",
    "platform": "AWS",
    "language": "python",
    "platformRegions": {},
    "lastSave": 1604543410273
  },
  "VCS_STATE": {
    "provider": "GitLab",
    "repo": {
      "name": "formio-process-gql-sigma-sls",
      "url": "https://gitlab.com/eddytools/formio-process-gql-sigma-sls"
    }
  }
}